{
	"description": "Test basic form setup",
	"setup": [
		{
			"namespace": "PF_NS_FORM",
			"page": "Basic",
			"contents": {
				"import-from": "/../Fixture/p-0001-form.txt"
			}
		},
		{
			"namespace": "NS_TEMPLATE",
			"page": "Basic",
			"contents": {
				"import-from": "/../Fixture/p-0001-template.txt"
			}
		},
		{
			"namespace": "NS_MAIN",
			"page": "Basic",
			"contents": {
				"import-from": "/../Fixture/p-0001-page.txt"
			}
		}
	],
	"tests": [
		{
			"type": "special",
			"about": "Just show the FormEdit page",
			"special-page": {
				"page": "FormEdit",
				"request-parameters": [],
				"query-parameters": ""
			},
			"assert-output": {
				"to-contain": [
					"No target page specified.",
					"You must specify both a form name and a target page"
				]
			}
		},
		{
			"type": "special",
			"about": "Simple FormEdit page with form given in request param, no target",
			"special-page": {
				"page": "FormEdit",
				"request-parameters": {
					"form": "Basic"
				},
				"query-parameters": ""
			},
			"assert-output": {
				"to-contain": [
					"No target page specified."
				],
				"not-contain": [
					"You must specify both a form name and a target page"
				]
			}
		},
		{
			"type": "special",
			"about": "Simple FormEdit page with form given in URL, no target",
			"special-page": {
				"page": "FormEdit",
				"request-parameters": {
				},
				"query-parameters": "Basic"
			},
			"requires": {
				"PageReForms":  "*"
			},
			"assert-output": {
				"to-contain": [
					"No target page specified."
				],
				"not-contain": [
					"<form namde=\"createbox\" id=\"pfForm\"",
					"You must specify both a form name and a target page"
				]
			}
		},
		{
			"type": "special",
			"about": "Simple FormEdit page with with form given in request param and non-existant target as request param",
			"special-page": {
				"page": "FormEdit",
				"request-parameters": {
					"target": "Basic",
					"form": "Basic"
				},
				"query-parameters": ""
			},
			"assert-output": {
				"to-contain": [
					"Save your changes [s]",
					"<form name=\"createbox\" id=\"pfForm\"",
					"some text",
					"Show preview"
				],
				"not-contain": [
				]
			}
		}
	],
	"settings": {
		"wgContLang": "en",
		"wgLang": "en"
	},
	"meta": {
		"version": "2",
		"is-incomplete": false,
		"debug": false
	}
}
